VERSION		EQU	1
REVISION	EQU	3
DATE	MACRO
		dc.b	'05.05.2019'
	ENDM
VERS	MACRO
		dc.b	'maprom 1.3'
	ENDM
VSTRING	MACRO
		dc.b	'maprom 1.3 (05.05.2019)',13,10,0
	ENDM
VERSTAG	MACRO
		dc.b	0,'$VER: maprom 1.3 (05.05.2019)',0
	ENDM
